[
  {
    "isbn": "9781593275846",
    "title": "Eloquent JavaScript, Second Edition",
    "subtitle": "A Modern Introduction to Programming",
    "imageLink": "../assets/default-book.png",
    "author": "Marijn Haverbeke",
    "published": "2014-12-14",
    "publisher": "No Starch Press",
    "pages": 472,
    "description": "JavaScript lies at the heart of almost every modern web application, from social apps to the newest browser-based games. Though simple for beginners to pick up and play with, JavaScript is a flexible, complex language that you can use to build full-scale applications.",
    "website": "http://eloquentjavascript.net/"
  },
  {
    "isbn": "9781449331818",
    "title": "Learning JavaScript Design Patterns",
    "subtitle": "A JavaScript and jQuery Developer's Guide",
    "imageLink": "../assets/default-book.png",
    "author": "Addy Osmani",
    "published": "2012-07-01",
    "publisher": "O'Reilly Media",
    "pages": 254,
    "description": "With Learning JavaScript Design Patterns, you'll learn how to write beautiful, structured, and maintainable JavaScript by applying classical and modern design patterns to the language. If you want to keep your code efficient, more manageable, and up-to-date with the latest best practices, this book is for you.",
    "website": "http://www.addyosmani.com/resources/essentialjsdesignpatterns/book/"
  },
  {
    "isbn": "9781449365035",
    "title": "Speaking JavaScript",
    "subtitle": "An In-Depth Guide for Programmers",
    "imageLink": "../assets/default-book.png",
    "author": "Axel Rauschmayer",
    "published": "2014-02-01",
    "publisher": "O'Reilly Media",
    "pages": 460,
    "description": "Like it or not, JavaScript is everywhere these days-from browser to server to mobile-and now you, too, need to learn the language or dive deeper than you have. This concise book guides you into and through JavaScript, written by a veteran programmer who once found himself in the same position.",
    "website": "http://speakingjs.com/"
  },
  {
    "isbn": "9781491950296",
    "title": "Programming JavaScript Applications",
    "subtitle": "Robust Web Architecture with Node, HTML5, and Modern JS Libraries",
    "imageLink": "../assets/default-book.png",
    "author": "Eric Elliott",
    "published": "2014-07-01",
    "publisher": "O'Reilly Media",
    "pages": 254,
    "description": "Take advantage of JavaScript's power to build robust web-scale or enterprise applications that are easy to extend and maintain. By applying the design patterns outlined in this practical book, experienced JavaScript developers will learn how to write flexible and resilient code that's easier-yes, easier-to work with as your code base grows.",
    "website": "http://chimera.labs.oreilly.com/books/1234000000262/index.html"
  },
  {
    "isbn": "9781593277574",
    "title": "Understanding ECMAScript 6",
    "subtitle": "The Definitive Guide for JavaScript Developers",
    "imageLink": "../assets/default-book.png",
    "author": "Nicholas C. Zakas",
    "published": "2016-09-03",
    "publisher": "No Starch Press",
    "pages": 352,
    "description": "ECMAScript 6 represents the biggest update to the core of JavaScript in the history of the language. In Understanding ECMAScript 6, expert developer Nicholas C. Zakas provides a complete guide to the object types, syntax, and other exciting changes that ECMAScript 6 brings to JavaScript.",
    "website": "https://leanpub.com/understandinges6/read"
  },
  {
    "isbn": "9781491904244",
    "title": "You Don't Know JS",
    "subtitle": "ES6 & Beyond",
    "imageLink": "../assets/default-book.png",
    "author": "Kyle Simpson",
    "published": "2015-12-27",
    "publisher": "O'Reilly Media",
    "pages": 278,
    "description": "No matter how much experience you have with JavaScript, odds are you don’t fully understand the language. As part of the 'You Don’t Know JS' series, this compact guide focuses on new features available in ECMAScript 6 (ES6), the latest version of the standard upon which JavaScript is built.",
    "website": "https://github.com/getify/You-Dont-Know-JS/tree/master/es6%20&%20beyond"
  },
  {
    "isbn": "9781449325862",
    "title": "Git Pocket Guide",
    "subtitle": "A Working Introduction",
    "imageLink": "../assets/default-book.png",
    "author": "Richard E. Silverman",
    "published": "2013-08-02",
    "publisher": "O'Reilly Media",
    "pages": 234,
    "description": "This pocket guide is the perfect on-the-job companion to Git, the distributed version control system. It provides a compact, readable introduction to Git for new users, as well as a reference to common commands and procedures for those of you with Git experience.",
    "website": "http://chimera.labs.oreilly.com/books/1230000000561/index.html"
  },
  {
    "isbn": "9781449337711",
    "title": "Designing Evolvable Web APIs with ASP.NET",
    "subtitle": "Harnessing the Power of the Web",
    "imageLink": "../assets/default-book.png",
    "author": "Glenn Block, et al.",
    "published": "2014-04-07",
    "publisher": "O'Reilly Media",
    "pages": 538,
    "description": "Design and build Web APIs for a broad range of clients—including browsers and mobile devices—that can adapt to change over time. This practical, hands-on guide takes you through the theory and tools you need to build evolvable HTTP services with Microsoft’s ASP.NET Web API framework. In the process, you’ll learn how design and implement a real-world Web API.",
    "website": "http://chimera.labs.oreilly.com/books/1234000001708/index.html"
  },
  {
    "author": "Chinua Achebe",
    "publisher": "неизвестный",
    "description": "нет описания",
    "country": "Nigeria",
    "imageLink": "../files/books/things-fall-apart.jpg",
    "language": "English",
    "website": "https://en.wikipedia.org/wiki/Things_Fall_Apart\n",
    "pages": 209,
    "title": "Things Fall Apart",
    "subtitle": "-",
    "isbn": "-",
    "published": "2014-12-14",
    "year": 1958
  },
  {
    "author": "Hans Christian Andersen",
    "publisher": "неизвестный",
    "description": "нет описания",
    "country": "Denmark",
    "imageLink": "../files/books/fairy-tales.jpg",
    "language": "Danish",
    "website": "https://en.wikipedia.org/wiki/Fairy_Tales_Told_for_Children._First_Collection.\n",
    "pages": 784,
    "title": "Fairy tales",
    "subtitle": "-",
    "isbn": "-",
    "published": "2014-12-14",
    "year": 1836
  },
  {
    "author": "Dante Alighieri",
    "publisher": "неизвестный",
    "description": "нет описания",
    "country": "Italy",
    "imageLink": "../files/books/the-divine-comedy.jpg",
    "language": "Italian",
    "website": "https://en.wikipedia.org/wiki/Divine_Comedy\n",
    "pages": 928,
    "title": "The Divine Comedy",
    "subtitle": "-",
    "isbn": "-",
    "published": "2014-12-14",
    "year": 1315
  },
  {
    "author": "Unknown",
    "publisher": "неизвестный",
    "description": "нет описания",
    "country": "Sumer and Akkadian Empire",
    "imageLink": "../files/books/the-epic-of-gilgamesh.jpg",
    "language": "Akkadian",
    "website": "https://en.wikipedia.org/wiki/Epic_of_Gilgamesh\n",
    "pages": 160,
    "title": "The Epic Of Gilgamesh",
    "subtitle": "-",
    "isbn": "-",
    "published": "2014-12-14",
    "year": -1700
  },
  {
    "author": "Unknown",
    "publisher": "неизвестный",
    "description": "нет описания",
    "country": "Achaemenid Empire",
    "imageLink": "../files/books/the-book-of-job.jpg",
    "language": "Hebrew",
    "website": "https://en.wikipedia.org/wiki/Book_of_Job\n",
    "pages": 176,
    "title": "The Book Of Job",
    "subtitle": "-",
    "isbn": "-",
    "published": "2014-12-14",
    "year": -600
  },
  {
    "author": "Unknown",
    "publisher": "неизвестный",
    "description": "нет описания",
    "country": "India/Iran/Iraq/Egypt/Tajikistan",
    "imageLink": "../files/books/one-thousand-and-one-nights.jpg",
    "language": "Arabic",
    "website": "https://en.wikipedia.org/wiki/One_Thousand_and_One_Nights\n",
    "pages": 288,
    "title": "One Thousand and One Nights",
    "subtitle": "-",
    "isbn": "-",
    "published": "2014-12-14",
    "year": 1200
  },
  {
    "author": "Unknown",
    "publisher": "неизвестный",
    "description": "нет описания",
    "country": "Iceland",
    "imageLink": "../files/books/njals-saga.jpg",
    "language": "Old Norse",
    "website": "https://en.wikipedia.org/wiki/Nj%C3%A1ls_saga\n",
    "pages": 384,
    "title": "Nj\u00e1l's Saga",
    "subtitle": "-",
    "isbn": "-",
    "published": "2014-12-14",
    "year": 1350
  },
  {
    "author": "Jane Austen",
    "publisher": "неизвестный",
    "description": "нет описания",
    "country": "United Kingdom",
    "imageLink": "../files/books/pride-and-prejudice.jpg",
    "language": "English",
    "website": "https://en.wikipedia.org/wiki/Pride_and_Prejudice\n",
    "pages": 226,
    "title": "Pride and Prejudice",
    "subtitle": "-",
    "isbn": "-",
    "published": "2014-12-14",
    "year": 1813
  },
  {
    "author": "Honor\u00e9 de Balzac",
    "publisher": "неизвестный",
    "description": "нет описания",
    "country": "France",
    "imageLink": "../files/books/le-pere-goriot.jpg",
    "language": "French",
    "website": "https://en.wikipedia.org/wiki/Le_P%C3%A8re_Goriot\n",
    "pages": 443,
    "title": "Le P\u00e8re Goriot",
    "subtitle": "-",
    "isbn": "-",
    "published": "2014-12-14",
    "year": 1835
  },
  {
    "author": "Samuel Beckett",
    "publisher": "неизвестный",
    "description": "нет описания",
    "country": "Republic of Ireland",
    "imageLink": "../files/books/molloy-malone-dies-the-unnamable.jpg",
    "language": "French, English",
    "website": "https://en.wikipedia.org/wiki/Molloy_(novel)\n",
    "pages": 256,
    "title": "Molloy, Malone Dies, The Unnamable, the trilogy",
    "subtitle": "-",
    "isbn": "-",
    "published": "2014-12-14",
    "year": 1952
  },
  {
    "author": "Giovanni Boccaccio",
    "publisher": "неизвестный",
    "description": "нет описания",
    "country": "Italy",
    "imageLink": "../files/books/the-decameron.jpg",
    "language": "Italian",
    "website": "https://en.wikipedia.org/wiki/The_Decameron\n",
    "pages": 1024,
    "title": "The Decameron",
    "subtitle": "-",
    "isbn": "-",
    "published": "2014-12-14",
    "year": 1351
  },
  {
    "author": "Jorge Luis Borges",
    "publisher": "неизвестный",
    "description": "нет описания",
    "country": "Argentina",
    "imageLink": "../files/books/ficciones.jpg",
    "language": "Spanish",
    "website": "https://en.wikipedia.org/wiki/Ficciones\n",
    "pages": 224,
    "title": "Ficciones",
    "subtitle": "-",
    "isbn": "-",
    "published": "2014-12-14",
    "year": 1965
  },
  {
    "author": "Emily Bront\u00eb",
    "publisher": "неизвестный",
    "description": "нет описания",
    "country": "United Kingdom",
    "imageLink": "../files/books/wuthering-heights.jpg",
    "language": "English",
    "website": "https://en.wikipedia.org/wiki/Wuthering_Heights\n",
    "pages": 342,
    "title": "Wuthering Heights",
    "subtitle": "-",
    "isbn": "-",
    "published": "2014-12-14",
    "year": 1847
  },
  {
    "author": "Albert Camus",
    "publisher": "неизвестный",
    "description": "нет описания",
    "country": "Algeria, French Empire",
    "imageLink": "../files/books/l-etranger.jpg",
    "language": "French",
    "website": "https://en.wikipedia.org/wiki/The_Stranger_(novel)\n",
    "pages": 185,
    "title": "The Stranger",
    "subtitle": "-",
    "isbn": "-",
    "published": "2014-12-14",
    "year": 1942
  },
  {
    "author": "Paul Celan",
    "publisher": "неизвестный",
    "description": "нет описания",
    "country": "Romania, France",
    "imageLink": "../files/books/poems-paul-celan.jpg",
    "language": "German",
    "website": "\n",
    "pages": 320,
    "title": "Poems",
    "subtitle": "-",
    "isbn": "-",
    "published": "2014-12-14",
    "year": 1952
  },
  {
    "author": "Louis-Ferdinand C\u00e9line",
    "publisher": "неизвестный",
    "description": "нет описания",
    "country": "France",
    "imageLink": "../files/books/voyage-au-bout-de-la-nuit.jpg",
    "language": "French",
    "website": "https://en.wikipedia.org/wiki/Journey_to_the_End_of_the_Night\n",
    "pages": 505,
    "title": "Journey to the End of the Night",
    "subtitle": "-",
    "isbn": "-",
    "published": "2014-12-14",
    "year": 1932
  },
  {
    "author": "Miguel de Cervantes",
    "publisher": "неизвестный",
    "description": "нет описания",
    "country": "Spain",
    "imageLink": "../files/books/don-quijote-de-la-mancha.jpg",
    "language": "Spanish",
    "website": "https://en.wikipedia.org/wiki/Don_Quixote\n",
    "pages": 1056,
    "title": "Don Quijote De La Mancha",
    "subtitle": "-",
    "isbn": "-",
    "published": "2014-12-14",
    "year": 1610
  },
  {
    "author": "Geoffrey Chaucer",
    "publisher": "неизвестный",
    "description": "нет описания",
    "country": "England",
    "imageLink": "../files/books/the-canterbury-tales.jpg",
    "language": "English",
    "website": "https://en.wikipedia.org/wiki/The_Canterbury_Tales\n",
    "pages": 544,
    "title": "The Canterbury Tales",
    "subtitle": "-",
    "isbn": "-",
    "published": "2014-12-14",
    "year": 1450
  },
  {
    "author": "Anton Chekhov",
    "publisher": "неизвестный",
    "description": "нет описания",
    "country": "Russia",
    "imageLink": "../files/books/stories-of-anton-chekhov.jpg",
    "language": "Russian",
    "website": "https://en.wikipedia.org/wiki/List_of_short_stories_by_Anton_Chekhov\n",
    "pages": 194,
    "title": "Stories",
    "subtitle": "-",
    "isbn": "-",
    "published": "2014-12-14",
    "year": 1886
  },
  {
    "author": "Joseph Conrad",
    "publisher": "неизвестный",
    "description": "нет описания",
    "country": "United Kingdom",
    "imageLink": "../files/books/nostromo.jpg",
    "language": "English",
    "website": "https://en.wikipedia.org/wiki/Nostromo\n",
    "pages": 320,
    "title": "Nostromo",
    "subtitle": "-",
    "isbn": "-",
    "published": "2014-12-14",
    "year": 1904
  },
  {
    "author": "Charles Dickens",
    "publisher": "неизвестный",
    "description": "нет описания",
    "country": "United Kingdom",
    "imageLink": "../files/books/great-expectations.jpg",
    "language": "English",
    "website": "https://en.wikipedia.org/wiki/Great_Expectations\n",
    "pages": 194,
    "title": "Great Expectations",
    "subtitle": "-",
    "isbn": "-",
    "published": "2014-12-14",
    "year": 1861
  },
  {
    "author": "Denis Diderot",
    "publisher": "неизвестный",
    "description": "нет описания",
    "country": "France",
    "imageLink": "../files/books/jacques-the-fatalist.jpg",
    "language": "French",
    "website": "https://en.wikipedia.org/wiki/Jacques_the_Fatalist\n",
    "pages": 596,
    "title": "Jacques the Fatalist",
    "subtitle": "-",
    "isbn": "-",
    "published": "2014-12-14",
    "year": 1796
  },
  {
    "author": "Alfred D\u00f6blin",
    "publisher": "неизвестный",
    "description": "нет описания",
    "country": "Germany",
    "imageLink": "../files/books/berlin-alexanderplatz.jpg",
    "language": "German",
    "website": "https://en.wikipedia.org/wiki/Berlin_Alexanderplatz\n",
    "pages": 600,
    "title": "Berlin Alexanderplatz",
    "subtitle": "-",
    "isbn": "-",
    "published": "2014-12-14",
    "year": 1929
  },
  {
    "author": "Fyodor Dostoevsky",
    "publisher": "неизвестный",
    "description": "нет описания",
    "country": "Russia",
    "imageLink": "../files/books/crime-and-punishment.jpg",
    "language": "Russian",
    "website": "https://en.wikipedia.org/wiki/Crime_and_Punishment\n",
    "pages": 551,
    "title": "Crime and Punishment",
    "subtitle": "-",
    "isbn": "-",
    "published": "2014-12-14",
    "year": 1866
  },
  {
    "author": "Fyodor Dostoevsky",
    "publisher": "неизвестный",
    "description": "нет описания",
    "country": "Russia",
    "imageLink": "../files/books/the-idiot.jpg",
    "language": "Russian",
    "website": "https://en.wikipedia.org/wiki/The_Idiot\n",
    "pages": 656,
    "title": "The Idiot",
    "subtitle": "-",
    "isbn": "-",
    "published": "2014-12-14",
    "year": 1869
  },
  {
    "author": "Fyodor Dostoevsky",
    "publisher": "неизвестный",
    "description": "нет описания",
    "country": "Russia",
    "imageLink": "../files/books/the-possessed.jpg",
    "language": "Russian",
    "website": "https://en.wikipedia.org/wiki/Demons_(Dostoyevsky_novel)\n",
    "pages": 768,
    "title": "The Possessed",
    "subtitle": "-",
    "isbn": "-",
    "published": "2014-12-14",
    "year": 1872
  },
  {
    "author": "Fyodor Dostoevsky",
    "publisher": "неизвестный",
    "description": "нет описания",
    "country": "Russia",
    "imageLink": "../files/books/the-brothers-karamazov.jpg",
    "language": "Russian",
    "website": "https://en.wikipedia.org/wiki/The_Brothers_Karamazov\n",
    "pages": 824,
    "title": "The Brothers Karamazov",
    "subtitle": "-",
    "isbn": "-",
    "published": "2014-12-14",
    "year": 1880
  },
  {
    "author": "George Eliot",
    "publisher": "неизвестный",
    "description": "нет описания",
    "country": "United Kingdom",
    "imageLink": "../files/books/middlemarch.jpg",
    "language": "English",
    "website": "https://en.wikipedia.org/wiki/Middlemarch\n",
    "pages": 800,
    "title": "Middlemarch",
    "subtitle": "-",
    "isbn": "-",
    "published": "2014-12-14",
    "year": 1871
  },
  {
    "author": "Ralph Ellison",
    "publisher": "неизвестный",
    "description": "нет описания",
    "country": "United States",
    "imageLink": "../files/books/invisible-man.jpg",
    "language": "English",
    "website": "https://en.wikipedia.org/wiki/Invisible_Man\n",
    "pages": 581,
    "title": "Invisible Man",
    "subtitle": "-",
    "isbn": "-",
    "published": "2014-12-14",
    "year": 1952
  },
  {
    "author": "Euripides",
    "publisher": "неизвестный",
    "description": "нет описания",
    "country": "Greece",
    "imageLink": "../files/books/medea.jpg",
    "language": "Greek",
    "website": "https://en.wikipedia.org/wiki/Medea_(play)\n",
    "pages": 104,
    "title": "Medea",
    "subtitle": "-",
    "isbn": "-",
    "published": "2014-12-14",
    "year": -431
  },
  {
    "author": "William Faulkner",
    "publisher": "неизвестный",
    "description": "нет описания",
    "country": "United States",
    "imageLink": "../files/books/absalom-absalom.jpg",
    "language": "English",
    "website": "https://en.wikipedia.org/wiki/Absalom,_Absalom!\n",
    "pages": 313,
    "title": "Absalom, Absalom!",
    "subtitle": "-",
    "isbn": "-",
    "published": "2014-12-14",
    "year": 1936
  },
  {
    "author": "William Faulkner",
    "publisher": "неизвестный",
    "description": "нет описания",
    "country": "United States",
    "imageLink": "../files/books/the-sound-and-the-fury.jpg",
    "language": "English",
    "website": "https://en.wikipedia.org/wiki/The_Sound_and_the_Fury\n",
    "pages": 326,
    "title": "The Sound and the Fury",
    "subtitle": "-",
    "isbn": "-",
    "published": "2014-12-14",
    "year": 1929
  },
  {
    "author": "Gustave Flaubert",
    "publisher": "неизвестный",
    "description": "нет описания",
    "country": "France",
    "imageLink": "../files/books/madame-bovary.jpg",
    "language": "French",
    "website": "https://en.wikipedia.org/wiki/Madame_Bovary\n",
    "pages": 528,
    "title": "Madame Bovary",
    "subtitle": "-",
    "isbn": "-",
    "published": "2014-12-14",
    "year": 1857
  },
  {
    "author": "Gustave Flaubert",
    "publisher": "неизвестный",
    "description": "нет описания",
    "country": "France",
    "imageLink": "../files/books/l-education-sentimentale.jpg",
    "language": "French",
    "website": "https://en.wikipedia.org/wiki/Sentimental_Education\n",
    "pages": 606,
    "title": "Sentimental Education",
    "subtitle": "-",
    "isbn": "-",
    "published": "2014-12-14",
    "year": 1869
  },
  {
    "author": "Federico Garc\u00eda Lorca",
    "publisher": "неизвестный",
    "description": "нет описания",
    "country": "Spain",
    "imageLink": "../files/books/gypsy-ballads.jpg",
    "language": "Spanish",
    "website": "https://en.wikipedia.org/wiki/Gypsy_Ballads\n",
    "pages": 218,
    "title": "Gypsy Ballads",
    "subtitle": "-",
    "isbn": "-",
    "published": "2014-12-14",
    "year": 1928
  },
  {
    "author": "Gabriel Garc\u00eda M\u00e1rquez",
    "publisher": "неизвестный",
    "description": "нет описания",
    "country": "Colombia",
    "imageLink": "../files/books/one-hundred-years-of-solitude.jpg",
    "language": "Spanish",
    "website": "https://en.wikipedia.org/wiki/One_Hundred_Years_of_Solitude\n",
    "pages": 417,
    "title": "One Hundred Years of Solitude",
    "subtitle": "-",
    "isbn": "-",
    "published": "2014-12-14",
    "year": 1967
  },
  {
    "author": "Gabriel Garc\u00eda M\u00e1rquez",
    "publisher": "неизвестный",
    "description": "нет описания",
    "country": "Colombia",
    "imageLink": "../files/books/love-in-the-time-of-cholera.jpg",
    "language": "Spanish",
    "website": "https://en.wikipedia.org/wiki/Love_in_the_Time_of_Cholera\n",
    "pages": 368,
    "title": "Love in the Time of Cholera",
    "subtitle": "-",
    "isbn": "-",
    "published": "2014-12-14",
    "year": 1985
  },
  {
    "author": "Johann Wolfgang von Goethe",
    "publisher": "неизвестный",
    "description": "нет описания",
    "country": "Saxe-Weimar",
    "imageLink": "../files/books/faust.jpg",
    "language": "German",
    "website": "https://en.wikipedia.org/wiki/Goethe%27s_Faust\n",
    "pages": 158,
    "title": "Faust",
    "subtitle": "-",
    "isbn": "-",
    "published": "2014-12-14",
    "year": 1832
  },
  {
    "author": "Nikolai Gogol",
    "publisher": "неизвестный",
    "description": "нет описания",
    "country": "Russia",
    "imageLink": "../files/books/dead-souls.jpg",
    "language": "Russian",
    "website": "https://en.wikipedia.org/wiki/Dead_Souls\n",
    "pages": 432,
    "title": "Dead Souls",
    "subtitle": "-",
    "isbn": "-",
    "published": "2014-12-14",
    "year": 1842
  },
  {
    "author": "G\u00fcnter Grass",
    "publisher": "неизвестный",
    "description": "нет описания",
    "country": "Germany",
    "imageLink": "../files/books/the-tin-drum.jpg",
    "language": "German",
    "website": "https://en.wikipedia.org/wiki/The_Tin_Drum\n",
    "pages": 600,
    "title": "The Tin Drum",
    "subtitle": "-",
    "isbn": "-",
    "published": "2014-12-14",
    "year": 1959
  },
  {
    "author": "Jo\u00e3o Guimar\u00e3es Rosa",
    "publisher": "неизвестный",
    "description": "нет описания",
    "country": "Brazil",
    "imageLink": "../files/books/the-devil-to-pay-in-the-backlands.jpg",
    "language": "Portuguese",
    "website": "https://en.wikipedia.org/wiki/The_Devil_to_Pay_in_the_Backlands\n",
    "pages": 494,
    "title": "The Devil to Pay in the Backlands",
    "subtitle": "-",
    "isbn": "-",
    "published": "2014-12-14",
    "year": 1956
  },
  {
    "author": "Knut Hamsun",
    "publisher": "неизвестный",
    "description": "нет описания",
    "country": "Norway",
    "imageLink": "../files/books/hunger.jpg",
    "language": "Norwegian",
    "website": "https://en.wikipedia.org/wiki/Hunger_(Hamsun_novel)\n",
    "pages": 176,
    "title": "Hunger",
    "subtitle": "-",
    "isbn": "-",
    "published": "2014-12-14",
    "year": 1890
  },
  {
    "author": "Ernest Hemingway",
    "publisher": "неизвестный",
    "description": "нет описания",
    "country": "United States",
    "imageLink": "../files/books/the-old-man-and-the-sea.jpg",
    "language": "English",
    "website": "https://en.wikipedia.org/wiki/The_Old_Man_and_the_Sea\n",
    "pages": 128,
    "title": "The Old Man and the Sea",
    "subtitle": "-",
    "isbn": "-",
    "published": "2014-12-14",
    "year": 1952
  },
  {
    "author": "Homer",
    "publisher": "неизвестный",
    "description": "нет описания",
    "country": "Greece",
    "imageLink": "../files/books/the-iliad-of-homer.jpg",
    "language": "Greek",
    "website": "https://en.wikipedia.org/wiki/Iliad\n",
    "pages": 608,
    "title": "Iliad",
    "subtitle": "-",
    "isbn": "-",
    "published": "2014-12-14",
    "year": -735
  },
  {
    "author": "Homer",
    "publisher": "неизвестный",
    "description": "нет описания",
    "country": "Greece",
    "imageLink": "../files/books/the-odyssey-of-homer.jpg",
    "language": "Greek",
    "website": "https://en.wikipedia.org/wiki/Odyssey\n",
    "pages": 374,
    "title": "Odyssey",
    "subtitle": "-",
    "isbn": "-",
    "published": "2014-12-14",
    "year": -800
  },
  {
    "author": "Henrik Ibsen",
    "publisher": "неизвестный",
    "description": "нет описания",
    "country": "Norway",
    "imageLink": "../files/books/a-Dolls-house.jpg",
    "language": "Norwegian",
    "website": "https://en.wikipedia.org/wiki/A_Doll%27s_House\n",
    "pages": 68,
    "title": "A Doll's House",
    "subtitle": "-",
    "isbn": "-",
    "published": "2014-12-14",
    "year": 1879
  },
  {
    "author": "James Joyce",
    "publisher": "неизвестный",
    "description": "нет описания",
    "country": "Irish Free State",
    "imageLink": "../files/books/ulysses.jpg",
    "language": "English",
    "website": "https://en.wikipedia.org/wiki/Ulysses_(novel)\n",
    "pages": 228,
    "title": "Ulysses",
    "subtitle": "-",
    "isbn": "-",
    "published": "2014-12-14",
    "year": 1922
  },
  {
    "author": "Franz Kafka",
    "publisher": "неизвестный",
    "description": "нет описания",
    "country": "Czechoslovakia",
    "imageLink": "../files/books/stories-of-franz-kafka.jpg",
    "language": "German",
    "website": "https://en.wikipedia.org/wiki/Franz_Kafka_bibliography#Short_stories\n",
    "pages": 488,
    "title": "Stories",
    "subtitle": "-",
    "isbn": "-",
    "published": "2014-12-14",
    "year": 1924
  },
  {
    "author": "Franz Kafka",
    "publisher": "неизвестный",
    "description": "нет описания",
    "country": "Czechoslovakia",
    "imageLink": "../files/books/the-trial.jpg",
    "language": "German",
    "website": "https://en.wikipedia.org/wiki/The_Trial\n",
    "pages": 160,
    "title": "The Trial",
    "subtitle": "-",
    "isbn": "-",
    "published": "2014-12-14",
    "year": 1925
  },
  {
    "author": "Franz Kafka",
    "publisher": "неизвестный",
    "description": "нет описания",
    "country": "Czechoslovakia",
    "imageLink": "../files/books/the-castle.jpg",
    "language": "German",
    "website": "https://en.wikipedia.org/wiki/The_Castle_(novel)\n",
    "pages": 352,
    "title": "The Castle",
    "subtitle": "-",
    "isbn": "-",
    "published": "2014-12-14",
    "year": 1926
  },
  {
    "author": "K\u0101lid\u0101sa",
    "publisher": "неизвестный",
    "description": "нет описания",
    "country": "India",
    "imageLink": "../files/books/the-recognition-of-shakuntala.jpg",
    "language": "Sanskrit",
    "website": "https://en.wikipedia.org/wiki/Abhij%C3%B1%C4%81na%C5%9B%C4%81kuntalam\n",
    "pages": 147,
    "title": "The recognition of Shakuntala",
    "subtitle": "-",
    "isbn": "-",
    "published": "2014-12-14",
    "year": 150
  },
  {
    "author": "Yasunari Kawabata",
    "publisher": "неизвестный",
    "description": "нет описания",
    "country": "Japan",
    "imageLink": "../files/books/the-sound-of-the-mountain.jpg",
    "language": "Japanese",
    "website": "https://en.wikipedia.org/wiki/The_Sound_of_the_Mountain\n",
    "pages": 288,
    "title": "The Sound of the Mountain",
    "subtitle": "-",
    "isbn": "-",
    "published": "2014-12-14",
    "year": 1954
  },
  {
    "author": "Nikos Kazantzakis",
    "publisher": "неизвестный",
    "description": "нет описания",
    "country": "Greece",
    "imageLink": "../files/books/zorba-the-greek.jpg",
    "language": "Greek",
    "website": "https://en.wikipedia.org/wiki/Zorba_the_Greek\n",
    "pages": 368,
    "title": "Zorba the Greek",
    "subtitle": "-",
    "isbn": "-",
    "published": "2014-12-14",
    "year": 1946
  },
  {
    "author": "D. H. Lawrence",
    "publisher": "неизвестный",
    "description": "нет описания",
    "country": "United Kingdom",
    "imageLink": "../files/books/sons-and-lovers.jpg",
    "language": "English",
    "website": "https://en.wikipedia.org/wiki/Sons_and_Lovers\n",
    "pages": 432,
    "title": "Sons and Lovers",
    "subtitle": "-",
    "isbn": "-",
    "published": "2014-12-14",
    "year": 1913
  },
  {
    "author": "Halld\u00f3r Laxness",
    "publisher": "неизвестный",
    "description": "нет описания",
    "country": "Iceland",
    "imageLink": "../files/books/independent-people.jpg",
    "language": "Icelandic",
    "website": "https://en.wikipedia.org/wiki/Independent_People\n",
    "pages": 470,
    "title": "Independent People",
    "subtitle": "-",
    "isbn": "-",
    "published": "2014-12-14",
    "year": 1934
  },
  {
    "author": "Giacomo Leopardi",
    "publisher": "неизвестный",
    "description": "нет описания",
    "country": "Italy",
    "imageLink": "../files/books/poems-giacomo-leopardi.jpg",
    "language": "Italian",
    "website": "\n",
    "pages": 184,
    "title": "Poems",
    "subtitle": "-",
    "isbn": "-",
    "published": "2014-12-14",
    "year": 1818
  },
  {
    "author": "Doris Lessing",
    "publisher": "неизвестный",
    "description": "нет описания",
    "country": "United Kingdom",
    "imageLink": "../files/books/the-golden-notebook.jpg",
    "language": "English",
    "website": "https://en.wikipedia.org/wiki/The_Golden_Notebook\n",
    "pages": 688,
    "title": "The Golden Notebook",
    "subtitle": "-",
    "isbn": "-",
    "published": "2014-12-14",
    "year": 1962
  },
  {
    "author": "Astrid Lindgren",
    "publisher": "неизвестный",
    "description": "нет описания",
    "country": "Sweden",
    "imageLink": "../files/books/pippi-longstocking.jpg",
    "language": "Swedish",
    "website": "https://en.wikipedia.org/wiki/Pippi_Longstocking\n",
    "pages": 160,
    "title": "Pippi Longstocking",
    "subtitle": "-",
    "isbn": "-",
    "published": "2014-12-14",
    "year": 1945
  },
  {
    "author": "Lu Xun",
    "publisher": "неизвестный",
    "description": "нет описания",
    "country": "China",
    "imageLink": "../files/books/diary-of-a-madman.jpg",
    "language": "Chinese",
    "website": "https://en.wikipedia.org/wiki/A_Madman%27s_Diary\n",
    "pages": 389,
    "title": "Diary of a Madman",
    "subtitle": "-",
    "isbn": "-",
    "published": "2014-12-14",
    "year": 1918
  },
  {
    "author": "Naguib Mahfouz",
    "publisher": "неизвестный",
    "description": "нет описания",
    "country": "Egypt",
    "imageLink": "../files/books/children-of-gebelawi.jpg",
    "language": "Arabic",
    "website": "https://en.wikipedia.org/wiki/Children_of_Gebelawi\n",
    "pages": 355,
    "title": "Children of Gebelawi",
    "subtitle": "-",
    "isbn": "-",
    "published": "2014-12-14",
    "year": 1959
  },
  {
    "author": "Thomas Mann",
    "publisher": "неизвестный",
    "description": "нет описания",
    "country": "Germany",
    "imageLink": "../files/books/buddenbrooks.jpg",
    "language": "German",
    "website": "https://en.wikipedia.org/wiki/Buddenbrooks\n",
    "pages": 736,
    "title": "Buddenbrooks",
    "subtitle": "-",
    "isbn": "-",
    "published": "2014-12-14",
    "year": 1901
  },
  {
    "author": "Thomas Mann",
    "publisher": "неизвестный",
    "description": "нет описания",
    "country": "Germany",
    "imageLink": "../files/books/the-magic-mountain.jpg",
    "language": "German",
    "website": "https://en.wikipedia.org/wiki/The_Magic_Mountain\n",
    "pages": 720,
    "title": "The Magic Mountain",
    "subtitle": "-",
    "isbn": "-",
    "published": "2014-12-14",
    "year": 1924
  },
  {
    "author": "Herman Melville",
    "publisher": "неизвестный",
    "description": "нет описания",
    "country": "United States",
    "imageLink": "../files/books/moby-dick.jpg",
    "language": "English",
    "website": "https://en.wikipedia.org/wiki/Moby-Dick\n",
    "pages": 378,
    "title": "Moby Dick",
    "subtitle": "-",
    "isbn": "-",
    "published": "2014-12-14",
    "year": 1851
  },
  {
    "author": "Michel de Montaigne",
    "publisher": "неизвестный",
    "description": "нет описания",
    "country": "France",
    "imageLink": "../files/books/essais.jpg",
    "language": "French",
    "website": "https://en.wikipedia.org/wiki/Essays_(Montaigne)\n",
    "pages": 404,
    "title": "Essays",
    "subtitle": "-",
    "isbn": "-",
    "published": "2014-12-14",
    "year": 1595
  },
  {
    "author": "Elsa Morante",
    "publisher": "неизвестный",
    "description": "нет описания",
    "country": "Italy",
    "imageLink": "../files/books/history.jpg",
    "language": "Italian",
    "website": "https://en.wikipedia.org/wiki/History_(novel)\n",
    "pages": 600,
    "title": "History",
    "subtitle": "-",
    "isbn": "-",
    "published": "2014-12-14",
    "year": 1974
  },
  {
    "author": "Toni Morrison",
    "publisher": "неизвестный",
    "description": "нет описания",
    "country": "United States",
    "imageLink": "../files/books/beloved.jpg",
    "language": "English",
    "website": "https://en.wikipedia.org/wiki/Beloved_(novel)\n",
    "pages": 321,
    "title": "Beloved",
    "subtitle": "-",
    "isbn": "-",
    "published": "2014-12-14",
    "year": 1987
  },
  {
    "author": "Murasaki Shikibu",
    "publisher": "неизвестный",
    "description": "нет описания",
    "country": "Japan",
    "imageLink": "../files/books/the-tale-of-genji.jpg",
    "language": "Japanese",
    "website": "https://en.wikipedia.org/wiki/The_Tale_of_Genji\n",
    "pages": 1360,
    "title": "The Tale of Genji",
    "subtitle": "-",
    "isbn": "-",
    "published": "2014-12-14",
    "year": 1006
  },
  {
    "author": "Robert Musil",
    "publisher": "неизвестный",
    "description": "нет описания",
    "country": "Austria",
    "imageLink": "../files/books/the-man-without-qualities.jpg",
    "language": "German",
    "website": "https://en.wikipedia.org/wiki/The_Man_Without_Qualities\n",
    "pages": 365,
    "title": "The Man Without Qualities",
    "subtitle": "-",
    "isbn": "-",
    "published": "2014-12-14",
    "year": 1931
  },
  {
    "author": "Vladimir Nabokov",
    "publisher": "неизвестный",
    "description": "нет описания",
    "country": "Russia/United States",
    "imageLink": "../files/books/lolita.jpg",
    "language": "English",
    "website": "https://en.wikipedia.org/wiki/Lolita\n",
    "pages": 317,
    "title": "Lolita",
    "subtitle": "-",
    "isbn": "-",
    "published": "2014-12-14",
    "year": 1955
  },
  {
    "author": "George Orwell",
    "publisher": "неизвестный",
    "description": "нет описания",
    "country": "United Kingdom",
    "imageLink": "../files/books/nineteen-eighty-four.jpg",
    "language": "English",
    "website": "https://en.wikipedia.org/wiki/Nineteen_Eighty-Four\n",
    "pages": 272,
    "title": "Nineteen Eighty-Four",
    "subtitle": "-",
    "isbn": "-",
    "published": "2014-12-14",
    "year": 1949
  },
  {
    "author": "Ovid",
    "publisher": "неизвестный",
    "description": "нет описания",
    "country": "Roman Empire",
    "imageLink": "../files/books/the-metamorphoses-of-ovid.jpg",
    "language": "Classical Latin",
    "website": "https://en.wikipedia.org/wiki/Metamorphoses\n",
    "pages": 576,
    "title": "Metamorphoses",
    "subtitle": "-",
    "isbn": "-",
    "published": "2014-12-14",
    "year": 100
  },
  {
    "author": "Fernando Pessoa",
    "publisher": "неизвестный",
    "description": "нет описания",
    "country": "Portugal",
    "imageLink": "../files/books/the-book-of-disquiet.jpg",
    "language": "Portuguese",
    "website": "https://en.wikipedia.org/wiki/The_Book_of_Disquiet\n",
    "pages": 272,
    "title": "The Book of Disquiet",
    "subtitle": "-",
    "isbn": "-",
    "published": "2014-12-14",
    "year": 1928
  },
  {
    "author": "Edgar Allan Poe",
    "publisher": "неизвестный",
    "description": "нет описания",
    "country": "United States",
    "imageLink": "../files/books/tales-and-poems-of-edgar-allan-poe.jpg",
    "language": "English",
    "website": "https://en.wikipedia.org/wiki/Edgar_Allan_Poe_bibliography#Tales\n",
    "pages": 842,
    "title": "Tales",
    "subtitle": "-",
    "isbn": "-",
    "published": "2014-12-14",
    "year": 1950
  },
  {
    "author": "Marcel Proust",
    "publisher": "неизвестный",
    "description": "нет описания",
    "country": "France",
    "imageLink": "../files/books/a-la-recherche-du-temps-perdu.jpg",
    "language": "French",
    "website": "https://en.wikipedia.org/wiki/In_Search_of_Lost_Time\n",
    "pages": 2408,
    "title": "In Search of Lost Time",
    "subtitle": "-",
    "isbn": "-",
    "published": "2014-12-14",
    "year": 1920
  },
  {
    "author": "Fran\u00e7ois Rabelais",
    "publisher": "неизвестный",
    "description": "нет описания",
    "country": "France",
    "imageLink": "../files/books/gargantua-and-pantagruel.jpg",
    "language": "French",
    "website": "https://en.wikipedia.org/wiki/Gargantua_and_Pantagruel\n",
    "pages": 623,
    "title": "Gargantua and Pantagruel",
    "subtitle": "-",
    "isbn": "-",
    "published": "2014-12-14",
    "year": 1533
  },
  {
    "author": "Juan Rulfo",
    "publisher": "неизвестный",
    "description": "нет описания",
    "country": "Mexico",
    "imageLink": "../files/books/pedro-paramo.jpg",
    "language": "Spanish",
    "website": "https://en.wikipedia.org/wiki/Pedro_P%C3%A1ramo\n",
    "pages": 124,
    "title": "Pedro P\u00e1ramo",
    "subtitle": "-",
    "isbn": "-",
    "published": "2014-12-14",
    "year": 1955
  },
  {
    "author": "Rumi",
    "publisher": "неизвестный",
    "description": "нет описания",
    "country": "Sultanate of Rum",
    "imageLink": "../files/books/the-masnavi.jpg",
    "language": "Persian",
    "website": "https://en.wikipedia.org/wiki/Masnavi\n",
    "pages": 438,
    "title": "The Masnavi",
    "subtitle": "-",
    "isbn": "-",
    "published": "2014-12-14",
    "year": 1236
  },
  {
    "author": "Salman Rushdie",
    "publisher": "неизвестный",
    "description": "нет описания",
    "country": "United Kingdom, India",
    "imageLink": "../files/books/midnights-children.jpg",
    "language": "English",
    "website": "https://en.wikipedia.org/wiki/Midnight%27s_Children\n",
    "pages": 536,
    "title": "Midnight's Children",
    "subtitle": "-",
    "isbn": "-",
    "published": "2014-12-14",
    "year": 1981
  },
  {
    "author": "Saadi",
    "publisher": "неизвестный",
    "description": "нет описания",
    "country": "Persia, Persian Empire",
    "imageLink": "../files/books/bostan.jpg",
    "language": "Persian",
    "website": "https://en.wikipedia.org/wiki/Bustan_(book)\n",
    "pages": 298,
    "title": "Bostan",
    "subtitle": "-",
    "isbn": "-",
    "published": "2014-12-14",
    "year": 1257
  },
  {
    "author": "Tayeb Salih",
    "publisher": "неизвестный",
    "description": "нет описания",
    "country": "Sudan",
    "imageLink": "../files/books/season-of-migration-to-the-north.jpg",
    "language": "Arabic",
    "website": "https://en.wikipedia.org/wiki/Season_of_Migration_to_the_North\n",
    "pages": 139,
    "title": "Season of Migration to the North",
    "subtitle": "-",
    "isbn": "-",
    "published": "2014-12-14",
    "year": 1966
  },
  {
    "author": "Jos\u00e9 Saramago",
    "publisher": "неизвестный",
    "description": "нет описания",
    "country": "Portugal",
    "imageLink": "../files/books/blindness.jpg",
    "language": "Portuguese",
    "website": "https://en.wikipedia.org/wiki/Blindness_(novel)\n",
    "pages": 352,
    "title": "Blindness",
    "subtitle": "-",
    "isbn": "-",
    "published": "2014-12-14",
    "year": 1995
  },
  {
    "author": "William Shakespeare",
    "publisher": "неизвестный",
    "description": "нет описания",
    "country": "England",
    "imageLink": "../files/books/hamlet.jpg",
    "language": "English",
    "website": "https://en.wikipedia.org/wiki/Hamlet\n",
    "pages": 432,
    "title": "Hamlet",
    "subtitle": "-",
    "isbn": "-",
    "published": "2014-12-14",
    "year": 1603
  },
  {
    "author": "William Shakespeare",
    "publisher": "неизвестный",
    "description": "нет описания",
    "country": "England",
    "imageLink": "../files/books/king-lear.jpg",
    "language": "English",
    "website": "https://en.wikipedia.org/wiki/King_Lear\n",
    "pages": 384,
    "title": "King Lear",
    "subtitle": "-",
    "isbn": "-",
    "published": "2014-12-14",
    "year": 1608
  },
  {
    "author": "William Shakespeare",
    "publisher": "неизвестный",
    "description": "нет описания",
    "country": "England",
    "imageLink": "../files/books/othello.jpg",
    "language": "English",
    "website": "https://en.wikipedia.org/wiki/Othello\n",
    "pages": 314,
    "title": "Othello",
    "subtitle": "-",
    "isbn": "-",
    "published": "2014-12-14",
    "year": 1609
  },
  {
    "author": "Sophocles",
    "publisher": "неизвестный",
    "description": "нет описания",
    "country": "Greece",
    "imageLink": "../files/books/oedipus-the-king.jpg",
    "language": "Greek",
    "website": "https://en.wikipedia.org/wiki/Oedipus_the_King\n",
    "pages": 88,
    "title": "Oedipus the King",
    "subtitle": "-",
    "isbn": "-",
    "published": "2014-12-14",
    "year": -430
  },
  {
    "author": "Stendhal",
    "publisher": "неизвестный",
    "description": "нет описания",
    "country": "France",
    "imageLink": "../files/books/le-rouge-et-le-noir.jpg",
    "language": "French",
    "website": "https://en.wikipedia.org/wiki/The_Red_and_the_Black\n",
    "pages": 576,
    "title": "The Red and the Black",
    "subtitle": "-",
    "isbn": "-",
    "published": "2014-12-14",
    "year": 1830
  },
  {
    "author": "Laurence Sterne",
    "publisher": "неизвестный",
    "description": "нет описания",
    "country": "England",
    "imageLink": "../files/books/the-life-and-opinions-of-tristram-shandy.jpg",
    "language": "English",
    "website": "https://en.wikipedia.org/wiki/The_Life_and_Opinions_of_Tristram_Shandy,_Gentleman\n",
    "pages": 640,
    "title": "The Life And Opinions of Tristram Shandy",
    "subtitle": "-",
    "isbn": "-",
    "published": "2014-12-14",
    "year": 1760
  },
  {
    "author": "Italo Svevo",
    "publisher": "неизвестный",
    "description": "нет описания",
    "country": "Italy",
    "imageLink": "../files/books/confessions-of-zeno.jpg",
    "language": "Italian",
    "website": "https://en.wikipedia.org/wiki/Zeno%27s_Conscience\n",
    "pages": 412,
    "title": "Confessions of Zeno",
    "subtitle": "-",
    "isbn": "-",
    "published": "2014-12-14",
    "year": 1923
  },
  {
    "author": "Jonathan Swift",
    "publisher": "неизвестный",
    "description": "нет описания",
    "country": "Ireland",
    "imageLink": "../files/books/gullivers-travels.jpg",
    "language": "English",
    "website": "https://en.wikipedia.org/wiki/Gulliver%27s_Travels\n",
    "pages": 178,
    "title": "Gulliver's Travels",
    "subtitle": "-",
    "isbn": "-",
    "published": "2014-12-14",
    "year": 1726
  },
  {
    "author": "Leo Tolstoy",
    "publisher": "неизвестный",
    "description": "нет описания",
    "country": "Russia",
    "imageLink": "../files/books/war-and-peace.jpg",
    "language": "Russian",
    "website": "https://en.wikipedia.org/wiki/War_and_Peace\n",
    "pages": 1296,
    "title": "War and Peace",
    "subtitle": "-",
    "isbn": "-",
    "published": "2014-12-14",
    "year": 1867
  },
  {
    "author": "Leo Tolstoy",
    "publisher": "неизвестный",
    "description": "нет описания",
    "country": "Russia",
    "imageLink": "../files/books/anna-karenina.jpg",
    "language": "Russian",
    "website": "https://en.wikipedia.org/wiki/Anna_Karenina\n",
    "pages": 864,
    "title": "Anna Karenina",
    "subtitle": "-",
    "isbn": "-",
    "published": "2014-12-14",
    "year": 1877
  },
  {
    "author": "Leo Tolstoy",
    "publisher": "неизвестный",
    "description": "нет описания",
    "country": "Russia",
    "imageLink": "../files/books/the-death-of-ivan-ilyich.jpg",
    "language": "Russian",
    "website": "https://en.wikipedia.org/wiki/The_Death_of_Ivan_Ilyich\n",
    "pages": 92,
    "title": "The Death of Ivan Ilyich",
    "subtitle": "-",
    "isbn": "-",
    "published": "2014-12-14",
    "year": 1886
  },
  {
    "author": "Mark Twain",
    "publisher": "неизвестный",
    "description": "нет описания",
    "country": "United States",
    "imageLink": "../files/books/the-adventures-of-huckleberry-finn.jpg",
    "language": "English",
    "website": "https://en.wikipedia.org/wiki/Adventures_of_Huckleberry_Finn\n",
    "pages": 224,
    "title": "The Adventures of Huckleberry Finn",
    "subtitle": "-",
    "isbn": "-",
    "published": "2014-12-14",
    "year": 1884
  },
  {
    "author": "Valmiki",
    "publisher": "неизвестный",
    "description": "нет описания",
    "country": "India",
    "imageLink": "../files/books/ramayana.jpg",
    "language": "Sanskrit",
    "website": "https://en.wikipedia.org/wiki/Ramayana\n",
    "pages": 152,
    "title": "Ramayana",
    "subtitle": "-",
    "isbn": "-",
    "published": "2014-12-14",
    "year": -450
  },
  {
    "author": "Virgil",
    "publisher": "неизвестный",
    "description": "нет описания",
    "country": "Roman Empire",
    "imageLink": "../files/books/the-aeneid.jpg",
    "language": "Classical Latin",
    "website": "https://en.wikipedia.org/wiki/Aeneid\n",
    "pages": 442,
    "title": "The Aeneid",
    "subtitle": "-",
    "isbn": "-",
    "published": "2014-12-14",
    "year": -23
  },
  {
    "author": "Vyasa",
    "publisher": "неизвестный",
    "description": "нет описания",
    "country": "India",
    "imageLink": "../files/books/the-mahab-harata.jpg",
    "language": "Sanskrit",
    "website": "https://en.wikipedia.org/wiki/Mahabharata\n",
    "pages": 276,
    "title": "Mahabharata",
    "subtitle": "-",
    "isbn": "-",
    "published": "2014-12-14",
    "year": -700
  },
  {
    "author": "Walt Whitman",
    "publisher": "неизвестный",
    "description": "нет описания",
    "country": "United States",
    "imageLink": "../files/books/leaves-of-grass.jpg",
    "language": "English",
    "website": "https://en.wikipedia.org/wiki/Leaves_of_Grass\n",
    "pages": 152,
    "title": "Leaves of Grass",
    "subtitle": "-",
    "isbn": "-",
    "published": "2014-12-14",
    "year": 1855
  },
  {
    "author": "Virginia Woolf",
    "publisher": "неизвестный",
    "description": "нет описания",
    "country": "United Kingdom",
    "imageLink": "../files/books/mrs-dalloway.jpg",
    "language": "English",
    "website": "https://en.wikipedia.org/wiki/Mrs_Dalloway\n",
    "pages": 216,
    "title": "Mrs Dalloway",
    "subtitle": "-",
    "isbn": "-",
    "published": "2014-12-14",
    "year": 1925
  },
  {
    "author": "Virginia Woolf",
    "publisher": "неизвестный",
    "description": "нет описания",
    "country": "United Kingdom",
    "imageLink": "../files/books/to-the-lighthouse.jpg",
    "language": "English",
    "website": "https://en.wikipedia.org/wiki/To_the_Lighthouse\n",
    "pages": 209,
    "title": "To the Lighthouse",
    "subtitle": "-",
    "isbn": "-",
    "published": "2014-12-14",
    "year": 1927
  },
  {
    "author": "Marguerite Yourcenar",
    "publisher": "неизвестный",
    "description": "нет описания",
    "country": "France/Belgium",
    "imageLink": "../files/books/memoirs-of-hadrian.jpg",
    "language": "French",
    "website": "https://en.wikipedia.org/wiki/Memoirs_of_Hadrian\n",
    "pages": 408,
    "title": "Memoirs of Hadrian",
    "subtitle": "-",
    "isbn": "-",
    "published": "2014-12-14",
    "year": 1951
  }
]